…
Because I used a [Google Form](https://docs.google.com/forms/d/e/1FAIpQLScYLAkzDzEOWvXrn601Vt79S6DsKLkv12NUsqbo72j1fmapWA/viewform) to collect this data, I don't have to worry about
order of names, since they come out the same every time.


```r
agg_results <- results %>%
  dplyr::group_by(response) %>%
  dplyr::summarise(total = n()) %>%
  dplyr::arrange(desc(total))

agg_results
```

```
## # A tibble: 30 x 2
##    response                       total
##    <chr>                          <int>
##  1 Bob                               49
##  2 Tina                              29
##  3 Louise                            23
##  4 Bob, Tina                         22
##  5 Bob, Tina, Louise                 17
##  6 Bob, Louise                       16
##  7 Tina, Louise                      12
##  8 Bob, Linda, Tina, Gene, Louise    11
##  9 Bob, Tina, Gene                   10
## 10 Bob, Gene                          8
## # … with 20 more rows
```
…
