ðŸ“º Pivot to Video
…
belcher_results <- tibble::rowid_to_column(raw_dat, "resp_id") %>%
  dplyr::rename("response" = `Members of the Belcher family with whom I identify (select all that apply)`) %>%
  dplyr::select(-Timestamp)

Because I used a Google Form to collect this data, I donâ€™t have to worry about order of names, since they come out the same every time.

agg_results <- belcher_results %>%
  dplyr::group_by(response) %>%
  dplyr::summarise(total = n()) %>%
  dplyr::arrange(desc(total))

agg_results

## # A tibble: 30 x 2
##    response                       total
##    <chr>                          <int>
##  1 Bob                               49
##  2 Tina                              29
##  3 Louise                            23
##  4 Bob, Tina                         22
##  5 Bob, Louise                       17
##  6 Bob, Tina, Louise                 17
##  7 Tina, Louise                      12
##  8 Bob, Linda, Tina, Gene, Louise    11
##  9 Bob, Tina, Gene                   10
## 10 Bob, Gene                          8
## # â€¦ with 20 more rows
…
Aside: A nice little trick for recoding TRUE/FALSE as 0 and 1, just use as.numeric().

movie_bin <- movie_long %>%
  mutate(seen_num = as.numeric(seen))

movie_bin

## # A tibble: 1,884 x 5
##    resp_id   age movie              seen  seen_num
##    <chr>   <dbl> <chr>              <lgl>    <dbl>
##  1 1          48 airplane           TRUE         1
##  2 1          48 anchorman          TRUE         1
##  3 1          48 animal_house       TRUE         1
##  4 1          48 the_big_lebowski   FALSE        0
##  5 1          48 the_blues_brothers TRUE         1
##  6 1          48 borat              FALSE        0
##  7 1          48 bridesmaids        TRUE         1
##  8 1          48 office_space       FALSE        0
##  9 1          48 old_school         FALSE        0
## 10 1          48 this_is_spinal_tap FALSE        0
## # â€¦ with 1,874 more rows
…
Letâ€™s briefly pretend weâ€™re looking at just three movies: Bridesmaids, Anchorman, and Airplane.

three_movies <- c("airplane", "anchorman", "bridesmaids")

movie_long %>%
  filter(movie %in% three_movies)

## # A tibble: 471 x 4
##    resp_id   age movie       seen 
##    <chr>   <dbl> <chr>       <lgl>
##  1 1          48 airplane    TRUE 
##  2 1          48 anchorman   TRUE 
##  3 1          48 bridesmaids TRUE 
##  4 2          31 airplane    FALSE
##  5 2          31 anchorman   TRUE 
##  6 2          31 bridesmaids TRUE 
##  7 3          30 airplane    FALSE
##  8 3          30 anchorman   FALSE
##  9 3          30 bridesmaids FALSE
## 10 4          20 airplane    FALSE
## # â€¦ with 461 more rows

For the wide version, weâ€™ll add the respondent id and age to the list of variables we want to look at.

vars_wanted <- c("resp_id", "age", three_movies)

movie_results %>%
  select(vars_wanted)

## # A tibble: 157 x 5
##    resp_id   age airplane anchorman bridesmaids
##    <chr>   <dbl> <lgl>    <lgl>     <lgl>      
##  1 1          48 TRUE     TRUE      TRUE       
##  2 2          31 FALSE    TRUE      TRUE       
##  3 3          30 FALSE    FALSE     FALSE      
##  4 4          20 FALSE    FALSE     FALSE      
##  5 5          29 FALSE    TRUE      TRUE       
##  6 6          28 FALSE    TRUE      FALSE      
##  7 7          24 TRUE     TRUE      FALSE      
##  8 8          42 TRUE     FALSE     FALSE      
##  9 9          33 TRUE     TRUE      TRUE       
## 10 10         34 TRUE     TRUE      TRUE       
## # â€¦ with 147 more rows
…
